*Vertices 164
*Edges
1 60 0.7279738850861175
1 158 0.7249578889550053
2 78 0.7111331079212247
3 78 0.7152384000154107
3 144 0.7567635992348452
5 53 0.7384827858453132
7 154 0.849317237544133
8 159 0.8856128771250298
9 11 0.7871158480539291
9 158 0.8074326956261503
11 158 0.8821951428034466
12 32 0.7550216437168822
12 137 0.7724385605954371
13 33 0.7141793041749439
13 50 0.7708507872906326
13 136 0.7893081635444555
15 21 0.8067343131020505
15 23 0.8098403835136727
15 27 0.7523031657846044
15 41 0.7048537869655741
15 60 0.7101244326012663
15 62 0.7272419042792573
15 68 0.7168952867598122
15 100 0.7673458415571907
15 102 0.7307986597269552
15 160 0.7783743040786119
16 18 0.7418092115405681
18 19 0.7449962155676219
20 22 0.7734735994485604
21 23 0.825265899933616
21 27 0.7935677448949032
21 62 0.7535369696381894
21 70 0.7323916810842553
21 100 0.7712776043804099
21 160 0.7543869070735785
22 132 0.7350445914311134
22 134 0.7082708903494321
23 27 0.7851896332831564
23 41 0.7496005652816567
23 100 0.7371908693644236
23 160 0.7460509032051907
24 36 0.7161700658124462
27 41 0.7349306035364588
27 62 0.7226018061970539
27 160 0.7282203657073877
33 136 0.7805889784345428
35 152 0.9423334006339725
35 153 0.7322505063733247
37 152 0.8241084461449006
38 40 0.8325423223992069
38 149 0.7400712157098085
38 157 0.7620032404976191
39 160 0.7944442466824218
40 149 0.7530900841479541
40 157 0.846987328350741
41 155 0.8326709189777305
41 158 0.8147150612251326
41 160 0.8296952740453352
43 133 0.7051357874941587
44 45 0.8393582577235481
44 73 0.70426680094326
44 140 0.7072919206658039
44 141 0.8122571211168721
44 142 0.9011108236267383
44 157 0.7100783392458592
45 72 0.7968946013637884
45 74 0.7714168741865086
45 90 0.7093816778227506
45 140 0.7990080634770468
45 141 0.960601791049969
45 142 0.7656349136671298
46 65 0.8290214499956396
46 87 0.8874932189746807
46 139 0.8064427430951021
47 87 0.729615716517985
47 88 0.701900522036246
47 139 0.7587841662613619
48 51 0.7860831028601845
48 53 0.765560133789314
48 55 0.798604735520837
48 132 0.8430071103587498
49 147 0.7214409524648216
51 132 0.7516740023666181
52 53 0.8244830716207812
52 54 0.7164479182765191
52 55 0.7297832974029753
52 132 0.8013448289090387
53 55 0.8038960876590493
53 132 0.8445027731360047
54 143 0.7751584922574338
55 132 0.8070674486834298
55 134 0.7367209094155178
56 135 0.9634164401404399
57 58 0.7086591620535123
58 139 0.7036165935346347
59 60 0.7179502519728188
60 158 0.7682994822416999
62 70 0.781109166546676
62 100 0.7616285762869848
64 100 0.7052860144727957
65 71 0.7093408346496284
65 87 0.7283936949701748
65 139 0.7683251182667246
66 139 0.8002800130707459
70 100 0.7506485562246883
71 73 0.8455218777795456
71 142 0.7353264325489473
72 74 0.7440919217807052
72 141 0.8032353687672562
73 74 0.7985267011224456
73 141 0.7190010661985727
73 142 0.7258791984534744
74 90 0.7433143104570034
74 140 0.7403670909585335
74 141 0.7923738773517772
75 145 0.7219503909550746
76 144 0.804242854073751
76 145 0.7004053319054698
77 78 0.8053687695383369
78 80 0.7669018808599902
79 161 0.7691419009358422
83 84 0.7054548648567383
85 86 0.7405471023342635
87 88 0.7074676919002232
87 139 0.8268126486336679
89 90 0.827779899890791
89 140 0.8531542954586444
90 140 0.8468182520815727
90 141 0.7233885692255413
91 92 0.8117658660593978
93 94 0.7658348781309898
95 96 0.8103314720299396
100 102 0.7797171631020444
103 104 0.7257050462963538
106 114 0.707708527749593
107 163 0.8176949623492678
132 134 0.7428375425696547
133 134 0.7184532643224415
136 137 0.8030515058211894
140 141 0.7499621818279233
141 142 0.8063262082683016
144 145 0.7022473336385289
149 161 0.7551083015580431
152 153 0.7525120859122559
