*Vertices 164
*Edges
5 53 0.728429788073899
5 117 0.7367034562334318
6 40 0.7584548010415818
6 116 0.751214564004353
6 156 0.8865667198868151
7 133 0.7252323721696537
9 158 0.7180673007435879
11 23 0.8366921112399253
11 25 0.743712650584007
11 158 0.7778067232148688
11 160 0.7130650565741531
12 13 0.7595549349462509
12 49 0.8622455465641577
13 49 0.7682511388885769
13 50 0.7747483334230669
23 25 0.8228371208154479
25 160 0.765252168766729
32 33 0.8344639849323692
32 34 0.8044076739788588
32 85 0.7550875695935579
32 137 0.8396525625762676
32 138 0.9162730192174553
32 153 0.745152878927199
33 34 0.7149563814912085
33 35 0.782151249387205
33 136 0.7755647177937213
33 138 0.8670558104631316
33 152 0.7379638491199754
34 35 0.8204505089803922
34 85 0.7251763468069857
34 137 0.7153444519433337
34 138 0.7468014377662114
34 152 0.7634247545531339
34 153 0.9181835906343588
35 138 0.7083070049357251
35 152 0.847615631129557
35 153 0.7322289259041009
36 37 0.7697825407445542
36 80 0.7371285614498797
36 137 0.7014487392614189
36 153 0.764828902354788
37 39 0.7605104642230157
37 152 0.7478485298143781
37 155 0.7415657151378839
38 149 0.8374122556827726
38 157 0.765999837575772
39 41 0.7453305963020105
39 148 0.7169211369828871
39 155 0.7431157923491267
40 156 0.8013272615050369
40 157 0.9069780288288928
40 161 0.7431069380577559
41 157 0.7242485026165727
42 157 0.7308526866333631
43 133 0.7629870162729968
44 90 0.771977807009414
44 140 0.7339137353699485
44 142 0.8542932234979037
46 65 0.7309888993734507
46 139 0.7742023558558111
47 66 0.7559473212458215
49 50 0.7014877832565063
49 145 0.7023247677316644
52 53 0.7048253639732044
54 143 0.7257303880528373
55 56 0.7733582687110958
55 135 0.7730599223670772
56 135 0.9935299050102538
60 158 0.731823661588377
65 66 0.7497617663071029
65 139 0.8724752721424324
66 139 0.8127892504113119
71 142 0.7277877941998131
73 74 0.7593596183762749
73 140 0.7654542512979443
74 90 0.7319743185084538
74 140 0.7894697383577453
75 145 0.732560627742965
76 144 0.7832243357994264
77 79 0.7632774370503138
77 137 0.7982020361889156
78 136 0.7644687540903179
78 137 0.7067134015005271
85 137 0.8180203527742839
85 138 0.7066434187932632
89 140 0.8614448458322712
90 140 0.8025247022278632
90 142 0.7138913396524553
91 92 0.8500544089672175
93 94 0.7751118648693668
95 96 0.8517867465423343
103 104 0.7373718071844204
106 108 0.72298916974412
106 163 0.791258583216222
107 163 0.8368014432614558
108 116 0.7192094362505607
108 163 0.8208416119647295
109 117 0.7336413014258883
114 115 0.7019561273152094
120 121 0.7104073853554194
137 138 0.744461383193947
137 153 0.7411748967294274
152 153 0.8492500657585582
156 157 0.7537490118435367
