*Vertices 164
*Edges
2 3 1.0331682032854055
2 77 0.9478672269973873
5 53 1.0729694370456306
6 40 0.9379642010845848
6 42 0.9906985740384128
6 156 1.7908595399975638
6 157 0.9397972814218413
7 154 1.4489523922343046
8 159 1.129521488009946
9 158 0.9201242285489465
12 32 0.9543534715263337
13 35 0.9866490408747713
13 152 0.9328358640583425
14 15 1.016165841274693
14 20 0.8817709286752327
15 20 1.0415673262851386
15 21 1.1775206660087654
15 27 1.1432106828471145
19 86 0.9195987407147042
20 21 1.288541804419718
20 22 0.9399206231631763
20 26 0.9173683605920908
20 27 0.9190857111726578
20 132 0.9376952605129032
21 22 0.9007107034475639
21 23 1.0219141122807234
21 27 1.2318496025344612
22 134 1.0453140897002144
24 161 1.334500264617999
25 160 1.2348587917489624
26 27 0.9915744377059905
27 158 1.0143670727064182
32 137 1.0137583467791569
33 136 0.997644686665166
34 36 0.8843017530092129
34 153 1.2446586076610275
35 37 0.9796854570555095
35 152 1.7780324050924627
36 37 0.9046149146874626
36 149 1.068578302949097
37 38 0.8986004124102789
37 148 1.1991137140118657
37 149 0.9687046724824021
37 152 1.150296416981249
38 148 1.2218697165800076
38 149 0.87936170828214
39 148 0.9585088701372944
40 147 0.9734946035844667
40 157 1.4207055335204701
41 160 1.1230712350095415
42 156 0.9416131405871113
43 133 0.9932868826381078
43 155 0.8831601238958314
45 141 0.9799746070606892
46 47 1.3476846580665576
46 65 1.2970873437217505
46 66 1.1949588138305955
46 87 1.0674048528792224
46 139 1.330837489830483
47 65 1.119915544792662
47 66 1.6754409585626204
47 87 1.0661216110811842
47 139 1.3570433786551006
48 51 0.9789506649178492
48 132 1.1628467960678328
53 132 0.9028862857376954
55 57 0.9300512640702349
55 58 0.9563545761421413
55 126 0.8718973753628007
56 135 2.3353826163387206
57 58 1.2013289625965817
57 65 0.8797592056566317
57 87 1.0875118079442319
57 139 1.1600085794647037
58 139 1.0401399169741343
65 66 1.4159091874700516
65 87 1.2755915016948622
65 139 1.4992111922054667
66 87 1.1705400503460757
66 139 1.4353687742601622
71 72 0.9643065783114101
76 144 1.0278984013664416
77 78 1.022840743516566
77 79 0.9275850784398856
77 81 0.8852241746097899
77 83 0.8958564893777031
77 84 0.8865602234638158
77 85 1.0613209559792984
77 86 0.8891944038316754
77 137 1.0821028467387304
78 80 0.8749208644544987
78 82 1.0360358606726106
78 84 1.0001719552853414
78 85 0.9205345723819943
78 86 0.9631070767364662
78 136 1.086065728404779
79 80 1.2237526219589359
79 84 0.9611355389405658
79 85 1.1791061757464292
79 86 0.8994512327926445
80 85 1.0574699570279384
80 86 0.8876215649807034
81 82 0.9613493784137326
81 85 1.1188345387528613
81 86 0.8798091030180731
82 86 0.9370183632246407
82 136 0.88904102727109
83 84 1.2356328570973139
83 85 1.3748073957829026
83 86 1.0233388881476433
84 85 1.3482682212300154
84 86 1.3561555275200925
85 86 1.4176161361103752
85 137 0.9579356306104068
86 137 0.8808303453519573
87 139 1.3170087867122213
90 140 0.9850630478184754
91 92 0.9437964388180708
93 94 1.2287593139869633
95 96 1.222149779857169
101 102 1.0193457373410515
103 104 0.8870399649920919
106 163 0.945087875420697
107 109 0.9452743341688242
107 163 1.2942247056075993
108 116 0.9456232284945199
108 162 0.9847502835599801
109 163 1.13222565717664
110 111 0.8675065004276656
114 115 0.9580423078712568
120 121 0.9203714271700753
136 137 0.9519765456245515
143 144 0.9687380476096414
143 146 0.900660161895087
148 149 0.9241760586975675
154 155 1.0079732628401672
155 157 0.9774890653797227
156 157 0.8680980279025164
158 160 1.1116711635947547
162 163 0.8979815109349305
