*Vertices 164
*Edges
2 3 0.8398157827124133
2 75 0.7374582613062455
2 145 0.8014480393102249
3 78 0.7501880617820342
6 156 0.7499435507271921
7 154 0.7210366055898942
8 10 0.7251301513390872
8 159 0.7444924491086534
9 158 0.7684217463047405
10 159 0.7834711171472069
11 76 0.7072604877881629
11 158 0.7143517784578699
12 77 0.7191820361789434
12 137 0.7669810814725876
13 50 0.7047160816421129
24 25 0.8014840853461965
24 161 0.7428695368103609
25 161 0.7222108148733867
27 67 0.7563757121549874
27 68 0.7826636967315426
32 137 0.774819732218891
33 136 0.8466203826620443
34 36 0.7285572975455858
34 153 0.9055829547429303
35 152 0.9154384658138183
36 149 0.740026172550984
36 153 0.9074860872712568
37 80 0.724615802015297
37 148 0.816920979349539
37 152 0.8527453495545965
38 149 0.7458236413522987
40 41 0.7052811610107468
40 157 0.7175158475126825
43 133 0.7721218055419548
45 141 0.7096316884391206
46 47 0.8841447985203056
46 65 0.883705613011424
46 66 0.8019479811893677
46 87 0.7569174648180685
46 139 0.8720496680180223
47 65 0.8318801326114044
47 66 0.8271733654676349
47 87 0.8309340112350486
47 139 0.8177616747133015
48 51 0.7885988986561808
48 132 0.7428888477723349
49 50 0.7162207467362978
49 133 0.7523349185668018
49 145 0.7080225504634681
52 132 0.786947325691623
54 143 0.7469005437871514
56 88 0.7002808022051993
56 135 0.9780688061724607
57 58 0.8414103411908349
63 64 0.7965737054554302
63 99 0.7322389118526583
64 112 0.7123601573213241
65 66 0.919670841312772
65 87 0.7164482205541628
65 139 0.8380664070748325
66 87 0.7491098213158639
66 139 0.7930564135924131
67 68 0.8214462700866594
71 73 0.706169604787266
73 74 0.7047919860991627
74 140 0.7174334836682922
75 145 0.8326149868153903
76 144 0.7798008045101432
77 78 0.830085080971771
77 79 0.7047217824693008
77 137 0.789656201489694
78 79 0.7326688274351227
78 80 0.8021948004597403
79 80 0.8188689392291181
79 148 0.7477598652146201
80 148 0.825611292998724
80 152 0.7045961596052583
81 82 0.819062128305452
83 85 0.723035327618276
87 139 0.7717857348705212
90 140 0.8855699295543444
91 92 0.7839030310805947
93 94 0.7124616997764373
95 96 0.7778264141626074
99 100 0.8361991054542154
101 102 0.7620441042690824
106 163 0.7041907160513317
107 163 0.7781786802104793
108 163 0.7923098494194332
109 117 0.8191707117747474
117 119 0.7431797021182049
122 123 0.7792549467172152
132 134 0.7454049883507706
133 148 0.7722795012700359
141 142 0.7066372048457156
144 145 0.7477731205505831
145 149 0.7554359779743974
160 161 0.7015312087427159
