*Vertices 164
*Edges
2 85 0.8774755262001412
4 5 0.9239083821853898
6 7 1.0685199115289876
6 38 0.8866748088718921
6 40 0.872899311179002
7 8 0.8884579258379568
7 154 1.0834961036553425
7 155 0.9383856014360695
8 159 1.0093310927938974
9 158 0.9675182364309428
10 36 1.0368714882253158
10 38 0.9570780212544945
10 153 0.9256534648120334
12 13 0.8988656117232313
12 32 1.2999042224106816
12 136 0.9324638575895198
12 137 1.3133916076263943
12 138 1.2095801464388596
13 33 1.4571429878891449
13 50 0.9123016159430145
13 136 1.008333538364919
14 15 0.9492661276045363
21 132 1.2806847127088388
24 38 0.9365754509810437
24 161 1.2558680155072595
25 40 0.8738573898105039
25 41 0.9215037786610593
25 160 0.9924429882965116
26 68 0.9269753081872313
28 29 1.0185980352835597
30 31 0.8857587917548654
30 36 0.8990545098967615
30 153 0.979081954538685
31 36 0.8692845984503836
31 37 1.0305772749796014
31 148 0.9036609565316418
32 137 1.0483582666046674
32 138 1.1628380223566865
34 35 0.9356200614493471
34 153 1.089449655912514
35 152 1.7579986105012577
35 153 1.2960154190345805
36 148 0.9861300292180871
36 149 0.996055481411904
36 153 1.136160595923368
37 148 1.3011047496514345
37 152 0.8849105823057986
38 39 1.0671418681729021
38 40 0.8744453286968731
38 157 1.032579181963592
39 155 1.0654010074975204
40 41 1.0304776207904556
40 157 1.419559453596102
40 161 1.1033820656268778
41 155 1.03228959044175
41 160 0.9353607649571768
42 43 1.0166280274408386
43 155 0.9273950441753529
44 73 0.8915079168354147
44 142 1.3226780073497613
45 141 1.1850143252369092
46 47 1.4216214217787226
46 65 1.277659994245057
46 66 0.9970275626391156
46 87 1.2587221955008476
46 139 1.0548172529776276
47 65 0.8701536565859092
48 132 0.9144675878149292
49 50 1.0079408966213974
52 53 1.1701921214404265
55 132 0.9389198207874957
56 135 2.263065195209175
57 58 1.1426047103508035
61 62 1.09340219468116
65 66 1.1630200619127096
65 87 1.1545587606766528
65 88 0.9036011020035621
65 139 1.3520405891094756
66 139 0.992667866074769
67 68 0.8894543200849461
73 74 1.0990502266041413
73 89 0.9516725872381171
76 144 0.8853859002776371
81 82 0.9063128870984178
81 84 0.8779685129932824
82 84 0.9020470080520953
87 88 0.9985684492280164
87 139 1.2664026646764786
88 139 0.9643203592070502
89 90 0.919451761177723
89 140 1.5586637780609909
90 140 1.2655002932251143
91 92 1.5438892669576842
93 94 1.1459778226051018
95 96 1.222168402431071
100 102 0.8909205855820036
101 102 0.9560663867298633
106 107 1.0111629933454762
106 163 0.941704034635365
107 163 0.9899776541387688
108 116 0.9658145028660752
108 163 1.1578565786120953
109 117 0.9333420225848598
114 115 0.9100118252188507
116 118 1.0194214064569636
117 119 0.9152196998114381
125 126 0.945689492705167
136 137 1.13125842724212
146 147 1.0336488908619963
151 153 1.002279198404037
152 153 1.2191125479378044
154 156 0.8674982084617231
160 161 0.9293025280424394
