*Vertices 164
*Edges
1 109 0.7178775300451964
1 138 0.7001143265318018
1 154 0.8179981517476849
1 163 0.7400272309641803
2 54 0.7637857940247067
2 81 0.7487168479139431
2 85 0.766070497366888
2 145 0.7403013850777028
7 154 0.8034664294501265
8 159 0.8577129253850722
9 158 0.7481910322664519
11 158 0.7240217427285662
12 13 0.7758632764807234
12 32 0.8101962507083834
12 137 0.7558529326745507
12 138 0.7988009683549927
13 32 0.7173910068524811
13 33 0.8682820845368094
13 106 0.706787655930111
13 108 0.701854632975012
13 136 0.8251944061404227
13 137 0.7226951692762693
13 138 0.8203399281295581
13 163 0.7059822389144257
14 15 0.7837610791499926
20 22 0.7688503781749187
30 34 0.7694216654791831
30 153 0.7594806695244846
32 137 0.8328016692560333
32 138 0.7489676482871964
33 35 0.7953096730185545
33 106 0.7121534758396456
33 107 0.7229741790607637
33 108 0.7326115481663387
33 136 0.7693750453455118
33 138 0.7652378469819497
33 163 0.7714580332810016
34 35 0.7339296700887016
34 45 0.7204228007641386
34 153 0.8049474468181129
35 152 0.8124924729664212
36 145 0.7450522107088756
36 149 0.756889572123911
36 153 0.749997431423285
37 148 0.8174004471068154
37 149 0.7078785260456009
37 152 0.7714174306422757
38 149 0.7483507046474414
39 160 0.729020309592503
40 41 0.8081582111064711
40 134 0.8158561726299912
40 157 0.816175507532034
41 160 0.7029502980101361
42 141 0.7095961103506668
44 142 0.8587019441401957
45 141 0.9233360913679965
46 47 0.845329614611854
46 65 0.8967249170201809
46 66 0.8157917614126525
46 139 0.854703062914336
47 65 0.8051569829720213
47 66 0.8293875197270906
47 87 0.7338821178223265
47 139 0.8758994172451761
48 51 0.7822232422134839
49 86 0.7171206466103063
52 53 0.7187087943049846
52 54 0.7415166766464578
52 143 0.7173575215502626
53 132 0.7225858467318548
54 143 0.8307792853075627
55 56 0.7620882462309567
55 135 0.7800933534244483
56 135 0.9717828376800726
59 60 0.7550322148043184
61 62 0.8559734482689784
61 67 0.7227448998594362
61 68 0.7072730638298561
62 68 0.8245391351232817
62 69 0.7447626866850511
65 66 0.8833818422875578
65 139 0.8927599444849278
66 139 0.9045658802720027
67 68 0.7711550239285831
68 69 0.7281047279375605
71 72 0.7462249523077239
76 144 0.7216277420410029
77 85 0.7264493780703097
77 137 0.8157619719980289
78 136 0.7277160652309359
79 86 0.715803278142788
83 137 0.7210806783382491
84 86 0.7704578204669736
84 136 0.7484825486311864
85 86 0.736916828777002
86 136 0.7497957800576031
87 139 0.801962101352201
89 90 0.7068890414352548
89 140 0.8763416098401631
91 92 0.7869103092350337
93 94 0.709712069020643
95 96 0.8198125208702507
106 107 0.8124596418719596
106 108 0.7524700695919153
106 127 0.7328184374069497
106 138 0.730448506435948
106 162 0.7436471177264313
106 163 0.8363086741108828
107 127 0.7682077524826106
107 128 0.7156480536195419
107 162 0.811326151935619
107 163 0.8530357639444524
108 109 0.7800748363984691
108 116 0.7636337275072251
108 138 0.7270676440844301
108 156 0.7318442093385603
108 163 0.9059979253884524
109 117 0.7396420180337347
109 154 0.7062387219945601
109 163 0.8245209771790869
112 126 0.7222315716464118
114 115 0.7680330469627304
115 127 0.7026752065542642
115 162 0.8041167792339994
116 118 0.793693527270134
117 118 0.719722481551928
117 119 0.7082744577941484
118 119 0.7671166725589762
127 162 0.8070897640391625
128 163 0.7687057605748171
136 137 0.7662922385018623
138 163 0.7623378063085382
141 142 0.705159902619784
154 163 0.7155611815535685
156 163 0.7323663487782224
