*Vertices 164
*Edges
1 7 0.9186411596156416
1 154 1.2354281470532646
4 52 0.967153667399469
6 156 1.101481571076624
7 154 1.1192666980734856
9 11 0.8862525138988261
9 158 1.2222462365635616
10 24 0.9046199831578123
12 13 1.5067063115538268
12 32 1.2280560521365245
12 33 1.4295479870050756
12 34 1.2560954076714657
12 35 0.9696745032623846
12 37 0.9680191824456323
12 49 1.1145302581431937
12 50 1.0374775501508458
12 136 1.5880046718744159
12 137 1.1821094051347385
12 138 1.567789875910217
12 152 0.9894915765412755
12 153 1.2665189072988265
13 33 1.3487350093558799
13 34 0.9872029762744643
13 35 1.2127041967185126
13 37 0.8982177281604007
13 49 1.037551527530246
13 50 1.2254498923565948
13 66 0.9231430250620464
13 136 1.2168435239759168
13 138 1.2079638125388723
13 152 1.1976210589600618
13 153 0.9597677036376693
14 15 0.952666100354746
14 20 1.0045346505771888
17 163 0.9545147312103035
18 86 0.8787099851774137
19 36 0.8936005514294575
20 21 1.125348050429066
20 23 0.8775752883627157
20 32 0.9216185912165393
21 23 0.8905289061246667
22 23 0.9427706270566364
22 26 0.9136448962587985
22 61 0.9757173458634817
22 62 0.8767129011303474
23 27 0.9981714752049843
25 35 0.9242405097165438
26 27 0.9888479497680212
29 43 0.9267240220777124
32 33 1.352461251942446
32 34 0.9831682017197837
32 36 0.8912540577537085
32 79 0.9668763791584982
32 136 1.359610643868309
32 137 1.5179295948348288
32 138 1.5003701362817599
32 153 1.052247409292425
33 34 1.196313509138007
33 35 0.946808877531499
33 37 0.8791453274827082
33 50 0.888280188977332
33 136 1.552668071892776
33 137 0.9866771132023305
33 138 1.924062604214759
33 152 1.0689076039046153
33 153 1.1913987480607897
34 35 1.0949528403578317
34 37 0.9467728922159855
34 44 0.965600842570642
34 71 0.961216218935922
34 136 1.1047874607959483
34 138 1.2406388656181722
34 141 0.9787122663653347
34 142 1.0445751714664975
34 149 0.8688974513479849
34 152 1.0410435060281078
34 153 1.8921856651576718
35 37 0.9607421737418136
35 115 0.8724410206996331
35 138 0.8681326303605059
35 142 0.915322935359117
35 152 1.834589032921234
35 153 1.0133673499425637
36 108 0.9312930978565882
36 136 0.9019877345452694
36 137 1.0756504428073923
36 149 1.1061014054002474
36 153 1.044740895308609
37 136 0.9043530637698314
37 138 0.8788950033894202
37 152 1.2003070315998845
37 153 1.018451808239695
38 39 0.8887504847078822
38 148 1.057158837135938
38 149 0.9580520890255548
38 160 0.9929071776480303
38 161 0.9927660221432584
39 148 1.0738242811072027
39 160 0.8908086397330024
40 157 1.3825862484346383
41 155 0.9548972138633633
43 133 1.0529954050188017
44 45 1.0991309334127757
44 71 1.1084719640132377
44 73 1.0867190620236484
44 141 1.180352797968907
44 142 1.6684762692059427
44 153 0.9100913399931296
45 71 0.9583269395596238
45 73 0.9151341779319507
45 141 1.4771959681201594
45 142 1.0979747227491767
46 47 0.9112330230653836
46 57 0.9946326261660794
46 58 1.1265305696308798
46 65 0.9766026083045387
46 87 1.243604814331549
46 88 1.1882517470729745
46 139 1.287324393801049
47 65 1.158115652000551
47 66 1.105068443338679
47 88 1.0450813476528458
47 139 1.0864435942028265
48 51 1.1860305595480867
49 50 1.1035529620409346
49 136 0.8676615658458765
52 53 1.0912191495671026
52 132 0.8725553870689449
56 135 2.131280673520637
57 58 1.2004998627221362
57 87 1.054215043928045
57 88 0.9838485161298183
57 139 1.00973676096032
58 65 0.9597585192706888
58 87 0.9060189545236905
58 88 1.2824979145795377
58 139 1.4520786750827444
59 60 1.0137327165382888
61 62 0.9061171179546215
61 69 0.8887801736150636
62 67 0.8796356215317441
62 69 0.8735219021512735
65 66 1.4026467858137777
65 71 0.9324787326939445
65 73 1.0226381516847864
65 88 1.003236185772841
65 139 1.5548841088903713
65 141 0.9448505295753837
66 71 0.9741922825605617
66 73 1.1227690399283847
66 115 0.8941854371765656
66 139 1.073525387696632
66 141 1.1255549828867444
69 70 0.9073609504789755
71 72 1.19417744647521
71 73 1.0404974451068232
71 139 0.9208936899463519
71 141 1.2436101940076212
71 142 1.0681126700999943
71 153 0.9243554282395716
72 73 0.8955582247160345
72 141 1.0016135665940178
73 74 1.1156122825355914
73 89 0.971897517639405
73 115 1.0062579009617902
73 139 1.015927671138358
73 140 0.9053980788930147
73 141 1.0612085706229055
73 142 0.9728343945525313
74 89 1.1031956983844964
74 90 0.9671309747967045
74 114 1.129041386446898
74 115 1.0565480446025124
74 140 1.3195556884998698
75 145 1.0138950668521465
77 79 0.9881257793343523
77 137 1.1256120931664788
77 161 1.017414565278583
78 136 0.9773130223715207
79 137 1.0862237146314189
79 149 0.9801313229243754
84 86 0.873818480835595
87 88 0.870919025457483
88 139 1.2218749078711846
89 90 1.3199045816279165
89 114 0.8857651650842784
89 140 1.693578609015406
90 140 1.3504029093091243
91 92 1.3604448613016398
93 94 1.14468080609877
95 96 1.4542530965467637
103 104 0.9826969739363666
106 127 1.1419642088053377
106 162 0.9031364167563447
107 127 0.9111416503544335
107 162 0.9396419983486941
108 163 1.3648161097258698
114 115 1.5941325431427844
114 127 0.9520564896808079
114 140 0.9221080283702968
114 162 0.9776488638282722
116 118 0.9069571616018526
118 119 0.9245743797572187
127 162 1.0174800616237116
128 162 0.9163005514275095
129 130 1.3050132992926147
129 162 1.263829081984692
130 162 1.1773549659502252
133 134 1.0385903537864274
136 137 1.3682924474723355
136 138 1.4685155409998512
136 152 0.880772911531162
136 153 1.1297920347008927
137 138 1.0585693018541045
137 153 0.9306966784707233
138 152 0.9232286603536569
138 153 1.2006620786538318
141 142 1.3328967577034185
141 153 0.9636311809445951
142 152 0.8742162529002726
142 153 0.979219078935581
148 160 1.0005403015617924
152 153 1.0735017584398279
