*Vertices 164
*Edges
4 40 0.7548655266849545
4 52 0.8200749402305676
4 157 0.704984998602739
5 53 0.7372335995260683
6 10 0.7266753290496416
6 108 0.7647806519334832
6 156 0.9253110155438394
7 154 0.8956900958577256
7 155 0.7165355219739491
8 159 0.9313945802383933
11 158 0.7873587666697891
12 13 0.803908129100613
12 32 0.8439687955057992
12 33 0.867314421203824
12 136 0.8172583445229848
12 137 0.7966644479071177
12 138 0.8454433811932995
13 32 0.7408303803696247
13 33 0.8314204981455975
13 50 0.7137832312693609
13 136 0.8424691794284576
13 138 0.7791968788952338
16 85 0.7134310298871533
18 19 0.8756426543944043
18 22 0.7300169206354813
18 86 0.7923119921287874
19 86 0.8058420979947076
32 33 0.8388650496835015
32 137 0.7773525966021348
32 138 0.8896730849055606
33 136 0.8638036641640282
33 137 0.7491899064698108
33 138 0.8677050777864243
34 35 0.7876355223093485
34 153 0.7073426300889037
35 152 0.9071409377515492
38 40 0.8725635213528108
38 145 0.7277740081693752
38 157 0.8081504902389025
40 145 0.7014058032907126
40 157 0.8702634679609561
43 133 0.7539674812945019
44 45 0.821216217439622
44 142 0.882464631385182
45 141 0.8784768508295954
45 142 0.8014311842104461
46 47 0.8204095451032252
46 65 0.9150974509198408
46 66 0.8570907136702625
46 87 0.9211436798621652
46 139 0.8996989341704005
47 65 0.8068181562841314
47 66 0.8989217197337206
47 87 0.7730542797689962
47 88 0.7554941340128305
47 139 0.8245057490765562
48 132 0.7080972307034604
49 149 0.7161979411483581
52 54 0.7592759286827269
52 132 0.784038922386047
52 143 0.7442821971855602
54 143 0.8967204722114929
55 56 0.7681239804755596
55 135 0.7823753288446605
56 135 0.980228940590843
57 139 0.700938979802549
58 88 0.7156341774051679
58 139 0.7131845720200822
63 64 0.8026432495014222
63 99 0.8125920629990707
65 66 0.9130033907999875
65 87 0.8730638518320822
65 139 0.9305896417583839
66 87 0.7919608308024927
66 88 0.7972991569372037
66 139 0.9008641742947359
75 76 0.7213892700986173
75 145 0.7611161273908227
75 147 0.7379889741403045
76 144 0.7820432068611122
77 78 0.7394298633657846
77 137 0.8145331150933258
78 84 0.7263189627869928
78 85 0.7541328029580974
78 86 0.725717095459941
78 136 0.8075932351393256
78 137 0.7821470308705974
83 85 0.744787042432507
84 85 0.7351741230755031
84 86 0.7802107723612842
85 86 0.7969283489057882
87 139 0.890053642632249
88 139 0.7052205456589731
89 140 0.7558201058730055
90 140 0.7602999456695521
93 94 0.8281133849848912
95 96 0.8891032347827138
99 100 0.7391354398574589
103 104 0.7066022188057398
106 108 0.7781850003966535
106 163 0.7389913019599186
108 116 0.8257660999117608
108 163 0.8092381738937782
112 126 0.7437265497536621
113 126 0.7387435521141266
114 127 0.7132833390566086
115 162 0.7564205413386529
126 127 0.8040029513742232
127 128 0.7373000751900709
136 137 0.8099099975918822
141 142 0.8252247699820786
143 145 0.7297334943340628
143 147 0.7090751227518971
145 147 0.799389603986922
145 149 0.7052879209706283
146 147 0.8249776177931137
147 149 0.7100137093638353
152 153 0.7036876517316685
156 157 0.7283839245534778
