*Vertices 164
*Edges
1 12 0.7712874674439241
1 13 0.7716349648242004
1 32 0.8030273471531094
1 33 0.8384833569224937
1 77 0.7446302585073249
1 89 0.7189776200883673
1 106 0.7339778887999444
1 107 0.7141370283204886
1 136 0.7502617525963762
1 137 0.7970500411100502
1 138 0.7889309269144048
1 146 0.7232381133163687
1 154 0.855347279239875
1 156 0.7901607417904934
1 163 0.7374971620135565
2 3 0.9060131076334641
2 54 0.7873369061926365
2 79 0.7234399938328722
2 85 0.766633163672703
2 143 0.7624783963973625
3 54 0.7222415110544064
3 143 0.7127553444738657
5 7 0.764096875182135
6 7 0.7117477211762488
6 40 0.704535773156185
6 154 0.7205742001736882
6 156 0.7544185086925386
6 157 0.7358746999776978
7 154 0.808224119748568
8 159 0.8983389383747467
9 158 0.78832320703995
10 38 0.7920491430283506
10 149 0.7508449399660422
12 13 0.9486528866337209
12 16 0.7266470161272818
12 17 0.7802114483864979
12 32 0.895655439404164
12 33 0.873346360293486
12 49 0.8154712414757107
12 58 0.7377099543869977
12 77 0.7456917351163457
12 83 0.768734068064312
12 84 0.7213032190516424
12 136 0.8523885434305358
12 137 0.8821139491358246
12 138 0.9423057010707541
12 147 0.7069523608690809
12 162 0.7211211569767232
13 16 0.7374109538992064
13 17 0.8284933629078753
13 19 0.7244094476241233
13 32 0.8476466336356363
13 33 0.9047349102420632
13 49 0.798604377846956
13 58 0.7052730403102426
13 77 0.7863371930855975
13 83 0.7490648587893693
13 84 0.8118314092009006
13 106 0.7472752980947347
13 136 0.9119148136105546
13 137 0.8754096912135698
13 138 0.9393490499927987
13 147 0.7005246881191154
13 162 0.7580522244589674
14 15 0.8098736130132721
16 17 0.8516064745468759
16 19 0.8144570121797715
16 22 0.7114289497279604
16 23 0.8161043616760423
16 138 0.7081431582360389
17 19 0.7788014660597197
17 33 0.7278064712021959
17 136 0.7651140100246664
17 137 0.7383039363825591
17 138 0.7459172836023801
18 86 0.7431428479466206
19 25 0.703727038535867
19 86 0.796201448634756
24 161 0.7715648300715365
30 34 0.7092236168223519
30 45 0.7180832304276769
30 153 0.7364509129350496
32 33 0.8901428866010844
32 77 0.7308296869144472
32 83 0.7686978507372696
32 84 0.7054855334731844
32 136 0.8768270324116059
32 137 0.9498883927929391
32 138 0.8451221888730837
33 77 0.7616020545937525
33 84 0.7861392776784539
33 106 0.7891585032016186
33 136 0.8921005505319362
33 137 0.8747214752064953
33 138 0.9119232434911869
33 147 0.7237795489230289
33 162 0.7491603270059515
33 163 0.7169925885174095
34 152 0.7163968585692391
34 153 0.789481668673807
35 40 0.7148007430387172
35 152 0.7827022053022882
36 37 0.7600719937856194
36 145 0.7955050723758403
36 149 0.8215651690730148
36 153 0.8260771889145737
37 145 0.7069966331682537
37 148 0.7438234481502779
37 149 0.8234520919942339
38 39 0.7732486326082568
38 147 0.7269454204359392
38 148 0.7914872324729713
38 149 0.826972319236434
39 40 0.7961944556428111
39 41 0.7753246967677313
39 148 0.7478514678282693
39 157 0.7715145916373192
39 160 0.77649602079667
40 41 0.887760763098095
40 134 0.7862637970327682
40 157 0.9162592016333297
40 160 0.7318533862146508
40 161 0.7948826183514115
41 134 0.7475386817427495
41 155 0.725310082532994
41 157 0.7641760645315449
41 160 0.8562062867424759
41 161 0.7664054533352432
42 142 0.7282177127984812
44 45 0.7347801980040229
44 140 0.7530364854752325
44 141 0.7124328150024478
44 142 0.900389920232398
45 141 0.9242322034662864
45 142 0.8597523512885419
46 47 0.750918655674061
46 65 0.8433897719217791
46 66 0.701940958364077
46 89 0.7131292540102073
46 139 0.8283131015802142
47 65 0.770078874714373
47 66 0.8530277688815735
47 139 0.7991546306081379
49 50 0.7901340741344884
49 77 0.7352834347521654
49 84 0.7390118036100845
49 137 0.7097377884462409
49 138 0.7846404517881825
49 162 0.7353401010716757
50 84 0.7453408327201861
52 53 0.7772532732275471
52 54 0.7265113435129468
52 143 0.7477425155996987
53 161 0.7568001215121473
54 143 0.8509772837690072
55 56 0.8344529890623359
55 132 0.7432643217837555
55 135 0.7835635773243133
56 135 0.9534318010209045
58 138 0.7216263295124711
59 60 0.8078079052378271
61 62 0.76436489843475
61 67 0.7322657689160877
62 69 0.729968647345794
65 66 0.8656881553950841
65 139 0.8812344947677395
66 139 0.8408023790626311
67 68 0.7853025568275442
69 70 0.7123817625801129
71 72 0.7251220054820878
71 74 0.7056307915870483
71 141 0.7846052902695976
71 142 0.7739111505637414
72 74 0.7104798954585643
73 140 0.7123347036048675
74 141 0.7375548589280256
74 142 0.7725749552701356
77 83 0.7707023344827155
77 84 0.7916219421647612
77 85 0.7516944812958073
77 106 0.7247035859478532
77 136 0.7696429988760676
77 137 0.8190734673819724
77 138 0.759741084410004
77 162 0.7140456172432583
78 84 0.7640776919928303
78 136 0.7546094462209352
78 137 0.7347628813581679
79 80 0.7366920553124984
79 85 0.7070526384679587
81 82 0.8305522039393917
81 86 0.7104808372026387
82 86 0.7711690836547898
83 84 0.7386701143513292
83 86 0.7067238459569251
83 137 0.8003506407056363
83 138 0.7544619263275978
84 85 0.7113539883120632
84 86 0.7852403148015277
84 106 0.7325528451497607
84 136 0.8274478507730261
84 137 0.7853297735435484
84 138 0.7322454956131407
85 86 0.7259102648403579
86 163 0.7020673923582691
87 139 0.7048572138960156
89 90 0.780588103254009
89 140 0.9198185229399535
90 140 0.8557909528893132
91 92 0.9289507021579951
95 96 0.8024452166382653
106 107 0.7587018846293351
106 108 0.7481638443989667
106 136 0.7027526690837536
106 137 0.7150777202298673
106 138 0.7549084731209867
106 162 0.7845893478500537
106 163 0.8163352717566985
107 108 0.8205498658831584
107 109 0.8684269121675969
107 137 0.7511345128032002
107 162 0.8024083212583388
107 163 0.9305459637417327
108 109 0.832339715570492
108 116 0.7600072627155632
108 162 0.7003561091996351
108 163 0.9449574746524547
109 117 0.7360748970414978
109 163 0.8682588002933755
114 115 0.701653612329777
115 127 0.7154453350440668
120 121 0.7247946169297361
127 162 0.7308412605704833
136 137 0.9355339445109492
136 138 0.7972955829782696
136 163 0.7003123257841253
137 138 0.8108974704928523
137 162 0.7088788344737665
137 163 0.743111869875904
138 147 0.7008259249922724
138 162 0.7830806865019408
141 142 0.8828120186045635
143 145 0.759049971789057
144 145 0.7071561029966004
145 149 0.7765385502827747
147 156 0.7086812257432729
148 149 0.707383613753111
152 153 0.719673670838631
154 156 0.7980046603590291
160 161 0.7493617872196053
162 163 0.7601552949533209
