*Vertices 164
*Edges
1 109 0.7396375717156612
2 3 0.8253388779962428
2 77 0.7414100549867704
2 79 0.7585828034790437
2 81 0.7285934106158931
2 85 0.7595436496149067
4 161 0.7919777688455959
5 7 0.7276992889134923
5 109 0.7317558018635497
5 160 0.7120720248689641
6 40 0.8555378639393278
6 108 0.7332180801508671
6 134 0.7280614116284418
6 156 0.8907619199357664
6 157 0.7738758533089161
7 23 0.7536472430900013
7 39 0.8136016236562349
7 41 0.8381357583298215
7 109 0.7748857233235309
7 154 0.9257520433721095
7 155 0.7897452411142403
8 159 0.919927737120136
9 158 0.8496985026216554
12 138 0.7390309751944755
13 33 0.72474945960076
13 50 0.739188072149451
13 78 0.7177754928757469
13 136 0.8045757474193947
21 27 0.7423085341925294
22 160 0.7049123940966909
22 161 0.7672579593585576
23 41 0.8342600005546575
23 154 0.765782478065015
23 155 0.7542672354155507
23 160 0.7312230494805577
24 161 0.7344806398684547
28 29 0.7773496925337827
29 155 0.703563124781235
33 136 0.8302867939207902
33 152 0.7841911600457852
34 153 0.8429820932732702
35 152 0.8962771977523571
36 37 0.7973542454961576
36 145 0.7105834798575729
36 148 0.7247648528164088
36 149 0.808824837701904
36 153 0.826359257301794
37 148 0.7935010914483891
37 149 0.7123326152129758
39 41 0.7897445615974767
39 154 0.7853259570089033
39 155 0.7531411935830508
39 157 0.7324368147591561
39 160 0.7035579139009459
40 156 0.837242186583504
40 157 0.9409084695066353
41 109 0.7373361116482268
41 154 0.7840131156235599
41 155 0.8014903616669763
41 160 0.8287001950939741
43 133 0.7135676444796292
44 142 0.7203246130712382
45 141 0.8588785789494161
46 65 0.7474116635540957
46 87 0.7381519838403658
46 139 0.8068376087057039
47 66 0.7555109226573112
47 87 0.8096129397422968
48 51 0.7606719136115566
48 132 0.8599775182738467
49 150 0.7693582339427777
50 78 0.7310735729694204
51 132 0.7244966280601403
54 143 0.8421888065643346
55 56 0.8513939095185266
55 135 0.8426813594046829
56 135 0.9959528614709126
61 62 0.7118100149283288
63 64 0.743430654237221
65 66 0.7647205724903506
65 139 0.7519735219890209
66 87 0.7009548243870978
66 139 0.7706038825191616
69 70 0.771494510760894
71 72 0.753373587996791
72 141 0.7120421090782044
75 145 0.9201064916954704
75 148 0.7198398335701844
75 149 0.7651878678338229
76 144 0.8515657887122459
77 78 0.7462292309604391
77 85 0.7839641617213194
77 137 0.8144172205855482
78 136 0.7241339837690272
79 85 0.7426257226408846
80 149 0.8016691785342318
81 82 0.7348965125680714
81 85 0.752614675562253
84 86 0.7296092506796689
85 86 0.7977961494916102
87 139 0.7901579999384539
89 140 0.7373884795911855
91 92 0.7164875017550949
93 94 0.82345190019032
95 96 0.8937434923651019
106 108 0.7289702925718617
106 163 0.7770879692931151
107 163 0.8399423414705955
108 156 0.7361260181432523
108 163 0.7656061623638298
109 154 0.7244898673799464
109 163 0.7034891735108202
114 115 0.8516199406433272
133 135 0.7102360053902093
136 137 0.7956445679318587
141 142 0.7636029246283006
145 148 0.7330468204818134
145 149 0.8081400437086141
146 147 0.7221853088876266
148 149 0.8289119047798302
150 151 0.7123111297928569
154 155 0.8613209942466122
156 157 0.824542150233631
