*Vertices 164
*Edges
1 5 1.0766556572179924
1 7 0.9017265794094345
2 3 1.2383628921184158
2 49 0.9889227163666086
2 85 0.8823667313315263
2 86 1.0102100166215642
3 84 0.885555121493621
3 86 1.0391699027510706
3 144 0.9051061688071658
4 6 0.8975886515456724
5 7 1.3326913059266177
5 29 0.9350959206231068
5 41 0.9061319286236851
5 107 0.9846226606212366
5 109 1.007663210516633
5 117 0.9118385025188899
5 158 0.923750626855756
6 24 0.89291980960403
6 38 1.0408284922678814
6 156 1.0732824274577117
6 161 0.9260324070816291
7 107 1.1592122615599343
7 109 0.8770642949989351
7 154 0.8791550328291676
7 158 1.2551390948436585
7 160 0.8770821355704623
8 159 1.0905929023334153
9 31 0.8910333788765111
9 154 1.0496822827988437
11 152 0.9839563480197705
12 13 0.9331604136068228
12 32 0.9677678790551039
12 137 1.0954594282510113
12 138 0.9801772778806171
13 138 0.9724323104620775
14 15 1.3659489368588695
14 81 0.8752642591639863
21 23 0.8700583398109747
22 23 0.8918633782918632
22 40 0.8977470224312499
22 134 0.9609238392136532
23 25 0.9972105744345194
23 27 1.0210210566706985
23 29 0.88615050179024
23 39 0.9739548197798571
23 41 0.8977380274156628
23 160 1.1263681893795812
24 161 1.068513370116392
25 39 1.1362989577794238
25 41 0.963280612375307
25 160 1.5059114806438736
29 41 0.9715605718210286
29 109 0.9032632557873166
29 155 0.8713679372657597
30 45 0.8725024251202846
30 153 0.9513486301046501
32 33 1.0316559666542058
32 137 1.2211650380232835
32 138 0.9139291624053846
33 136 1.1301520875526339
33 138 1.1771349145400283
34 153 1.0246473514069534
35 152 1.5918343414392335
36 37 0.9118434203373559
36 145 1.1347378644351624
36 149 0.9251799151376884
36 153 1.4072732447160328
38 149 0.8743963887818738
38 156 0.9073845143771361
39 41 1.1225348682722356
39 155 0.8921962416737788
39 160 1.6097947770633767
40 55 0.876286183299034
40 56 0.8839549659252073
40 134 1.4380316455437052
40 135 0.9402669696619365
40 157 1.3302081935047736
41 155 1.3583733510943445
41 160 1.0622692952840807
44 45 0.94586227770737
44 73 1.0246316870588104
44 141 1.1423697966957707
44 142 1.6316622748954885
45 141 1.0442908221825553
45 142 0.8843212621976828
46 47 1.1984333156283495
46 65 1.0565253543725548
46 87 1.2302765616937386
46 139 1.3690515452857266
47 65 1.1878572346739409
47 66 0.9151338988017667
47 139 1.1452734335941221
49 79 0.9952615229005903
49 80 1.0554820699930672
49 145 0.8673393335263697
53 132 1.1041915655332006
54 143 1.2439042747392497
55 56 1.1556543298284307
55 132 0.878572247893062
55 134 1.2980992911414242
55 135 1.2207728623673804
56 134 1.0629744543795725
56 135 2.4237267048285878
58 139 0.8726704198869796
61 62 1.0861197637964024
63 64 1.131359000729014
65 66 1.2370989645605148
65 139 1.1760575469267172
66 139 0.9903592111589131
71 73 0.922710949720174
71 141 1.0397894200321154
71 142 1.0222539180230816
73 140 0.8983083342725082
73 141 0.9207247153719221
73 142 0.9228708626569474
77 137 1.0308430978384875
78 136 1.0055863498212427
79 80 0.8931397603803848
81 82 1.5745192260621967
83 84 0.9660247370638481
84 86 0.9433185932629656
85 86 1.039452036355926
87 139 0.9349824632319372
89 90 1.0362358425252498
89 140 1.6217878223924953
90 140 1.279025719221308
90 141 0.9181845880070385
91 92 1.298425645819161
95 96 1.0535947289602992
107 109 0.9904625296637388
107 158 0.9693309885285342
107 163 0.89766307991637
108 163 0.9997215114935718
109 117 1.1351033118303229
109 163 1.212033925580726
115 139 0.952777657493145
134 135 1.1749476759799387
134 141 0.8943648625791153
134 157 0.8748706097709894
136 137 0.9866408802854314
140 141 0.9079146170567098
141 142 1.2224379280480526
142 153 0.8689426596679597
145 147 0.9187065882685786
