*Vertices 164
*Edges
1 12 1.0234980226271457
1 13 1.0243563640044189
1 32 1.1070787448030193
1 33 1.2160440288525773
1 77 0.9607927321667344
1 89 0.9055253380881564
1 106 0.9372969877813988
1 107 0.895576233235031
1 136 0.9735536348331915
1 137 1.0904711463509074
1 138 1.0685940161885394
1 146 0.914401451133503
1 154 1.2757456647689174
1 156 1.0718594470813292
1 163 0.9449695253569786
2 3 1.5048068157951249
2 54 1.0643864174289457
2 79 0.9148248754894998
2 85 1.0121096132027658
2 143 1.0021088476864135
3 54 0.9123149670811592
3 143 0.8927621771903121
5 7 1.0059864601350395
6 7 0.890717060939729
6 40 0.8762501545340291
6 154 0.9088382843691207
6 156 0.9831319573055766
6 157 0.9414215516686619
7 154 1.1218865467255017
8 159 1.463545092478002
9 158 1.0669865770624267
10 38 1.0769066147483561
10 149 0.9748891697628024
12 13 1.8181424327688447
12 16 0.9215863623380323
12 17 1.0459107361586142
12 32 1.4498107152003248
12 33 1.3470127468737776
12 49 1.1431475130408457
12 58 0.945436235716084
12 77 0.9631794967350953
12 83 1.0172255425098764
12 84 0.910356292110908
12 136 1.2648238308410782
12 137 1.3852161889402883
12 138 1.758236344401677
12 147 0.8810648138057102
12 162 0.909976879898933
13 16 0.9447805394108143
13 17 1.1833128208392596
13 19 0.9168618316494516
13 32 1.2477327084552163
13 33 1.4977173495172684
13 49 1.0947475272674152
13 58 0.8777155752351082
13 77 1.0617617189052
13 83 0.970821026748898
13 84 1.1323775602217365
13 106 0.9667560597708438
13 136 1.5387780828364894
13 137 1.35577579589432
13 138 1.7324861777400062
13 147 0.8683300697262655
13 162 0.9916199426156516
14 15 1.126661624536896
16 17 1.2619706025612192
16 19 1.1401274698129442
16 22 0.890071306628275
16 23 1.145040305857713
16 138 0.883449386508774
17 19 1.0423172204755449
17 33 0.9240473155145246
17 136 1.008435157407954
17 137 0.9467406998936638
17 138 0.9636877456829934
18 86 0.9574624478008226
19 25 0.874646154703639
19 86 1.0881486975461843
24 161 1.0241830349643817
30 34 0.8856199960331876
30 45 0.903676331736384
30 153 0.9426794823318952
32 33 1.422613577136151
32 77 0.9305059234670772
32 83 1.0171370079902813
32 84 0.8781384976632083
32 136 1.3618741365780793
32 137 1.8306373767090243
32 138 1.2388321452940374
33 77 1.0000188076992917
33 84 1.0612433842759175
33 106 1.0691970135894793
33 136 1.432121561646136
33 137 1.3528379619580126
33 138 1.5388281404146245
33 147 0.9155376442546689
33 162 0.9710385783002691
33 163 0.9014282290365452
34 152 0.9002033256489
34 153 1.0700542761560337
35 40 0.8969320424106677
35 152 1.0523084232282793
36 37 0.9963855442607936
36 145 1.0862492336649756
36 149 1.1616139758967108
36 153 1.1756568730286807
37 145 0.8811533252901838
37 148 0.9589842515231455
37 149 1.167447232172637
38 39 1.028357204794727
38 147 0.9222188868082811
38 148 1.0754005677446894
38 149 1.1784819096066017
39 40 1.0881295946028466
39 41 1.0335411748723757
39 148 0.9680621263556726
39 157 1.024058905613936
39 160 1.0364844788049428
40 41 1.4112569936258093
40 134 1.0615694475117623
40 157 1.5652019688251364
40 160 0.9327067691299882
40 161 1.0845562482154618
41 134 0.9673527836895088
41 155 0.9187595913351451
41 157 1.0061767754798316
41 160 1.2789551636835175
41 161 1.0115575187065007
42 142 0.9249223007688916
44 45 0.9390385368210633
44 140 0.9799320433127154
44 141 0.8921069086832754
44 142 1.4742755016593019
45 141 1.617304478640512
45 142 1.2923944170463142
46 47 0.9750581740630047
46 65 1.2328006641180838
46 66 0.8711165128963875
46 89 0.8935225991650676
46 139 1.18273827918767
47 65 1.0205215349966252
47 66 1.2671662735500033
47 139 1.0962684392096722
49 50 1.0717884596088971
49 77 0.9401331767587254
49 84 0.9482985600878966
49 137 0.8866553027096901
49 138 1.057331648864208
49 162 0.9402565476954801
50 84 0.9623895414819388
52 53 1.0383944874632174
52 54 0.9212989707050518
52 143 0.9678149568586327
53 161 0.988682835014418
54 143 1.2596851439185446
55 56 1.202623204479694
55 132 0.9577338077131622
55 135 1.0545359035243071
56 135 1.8682125599396133
58 138 0.9110301569451972
59 60 1.1206874613919295
61 62 1.0066308225248912
61 67 0.9335953550956568
62 69 0.9286602456038663
65 66 1.3156104766918006
65 139 1.3812662408555918
66 139 1.2239052508446762
67 68 1.059056691748935
69 70 0.8920032438600264
71 72 0.9183628559282864
71 74 0.8784277483206424
71 141 1.0572401698267122
71 142 1.0300070081332602
72 74 0.8881522552013734
73 140 0.8919077015158865
74 141 0.9450960383128851
74 142 1.0266839175030205
77 83 1.0220552685524438
77 84 1.0757612929329983
77 85 0.9768394776237381
77 106 0.9174810470020198
77 136 1.0194514126679375
77 137 1.153995757429142
77 138 0.9956024046409894
77 162 0.8953897080250983
78 84 1.005940365604933
78 136 0.9835752674954146
78 137 0.939000901002811
79 80 0.9432066127942231
79 85 0.8812653098726548
81 82 1.1899140297824586
81 86 0.888154156878497
82 86 1.0232058662553036
83 84 0.9475461294797544
83 86 0.8806081309451352
83 137 1.0995870504726233
83 138 0.9832327363765829
84 85 0.8899195389619747
84 86 1.0588943277844798
84 106 0.9342146189957192
84 136 1.17998807512258
84 137 1.0591277020314502
84 138 0.9335516439504937
85 86 0.9200271633473041
86 163 0.8713657961264782
87 139 0.8768886903820852
89 90 1.0468741067156855
89 140 1.5878467062031396
90 140 1.2774011554798075
91 92 1.6506787422548452
95 96 1.1054417728606911
106 107 0.9931490440306279
106 108 0.9687712922238515
106 136 0.8727184406794469
106 137 0.8974986179869482
106 138 0.9842701312963716
106 162 1.0571986970710021
106 163 1.1457320983661878
107 108 1.1584982467908067
107 109 1.326644817078667
107 137 0.9755533057301278
107 162 1.1053381665386055
107 163 1.6624464698408163
108 109 1.1957045733161273
108 116 0.9962322764986775
108 162 0.8679991225976154
108 163 1.7824446586339655
109 117 0.9418583378829464
109 163 1.3259613817258982
114 115 0.8705502920986886
115 127 0.8982513087022079
120 121 0.9176727966422711
127 162 0.9305307660621716
136 137 1.7009998469651966
136 138 1.0911447580080045
136 163 0.867913193908215
137 138 1.1296442446450043
137 162 0.8849266126092346
137 163 0.9573932635253879
138 147 0.8689218278245631
138 162 1.053286206433766
141 142 1.3883711844051103
143 145 0.9939697966845504
144 145 0.8814722375209963
145 149 1.0365916003334457
147 156 0.8845295135759028
148 149 0.8819274690543104
152 153 0.9069677198567607
154 156 1.0930940904728799
160 161 0.9714978956945155
162 163 0.9965828341536299
