*Vertices 164
*Edges
6 40 0.871583911559596
7 154 1.1775223960079448
8 159 1.207122221393451
9 11 0.9416368876800181
9 158 1.2799085554700902
10 11 0.9061027271915452
12 13 1.0054572470652514
12 32 1.0223240661375779
12 85 0.9357390449340997
12 137 1.1876678003818484
12 138 1.0156217191049466
13 138 1.1665379349840197
16 85 0.8776904803544221
18 85 1.2114038890086423
22 161 1.0117573064743315
25 160 1.0199969889988019
32 33 0.912083713556676
32 137 0.9525592405289262
32 138 1.1135119411759793
33 136 0.9352538991903042
33 138 1.2023438290237807
34 153 1.1018991837620196
35 152 1.484388958094609
36 38 0.9266712107660192
36 153 0.9669629263795472
37 41 0.8738607984456381
38 40 1.1387211818311824
38 157 0.9323194575437775
39 41 1.2756270210181484
39 155 1.0379283768339949
39 160 1.0212659894320828
40 157 0.9997946043194355
41 155 1.1006354884100054
41 160 0.9270492082559297
44 45 0.9298712144107784
44 141 1.1318388352160715
44 142 1.2371345666253013
45 140 0.9087742332044388
45 141 1.2966326072389738
46 65 0.8861042489598056
46 139 0.9590930570551968
47 139 1.0534873656049615
49 50 0.9064723823607865
56 135 2.2389884169596366
57 58 0.93780262890866
65 73 1.1189811020796705
65 139 1.0266532597729656
66 139 0.9130533066988155
77 137 1.3386954330279046
85 86 1.058676996142123
85 137 1.0566610294321432
89 90 0.9974105199870267
89 140 1.0314226298188123
90 140 1.3660552209080141
90 141 0.9104959999362521
91 92 0.9899413680084407
93 94 0.9259368748878813
95 96 0.960354310250801
106 108 0.9815465555548721
106 163 1.1183716394666965
108 163 1.2044309114012244
109 163 0.9012550624903402
110 111 1.0988382942916453
140 141 1.0436050206452978
141 142 0.9486462756704322
