*Vertices 164
*Edges
11 158 0.7095444216247955
12 13 0.8789679504888036
12 32 0.735932596474404
12 33 0.8758463321004114
12 34 0.8245399968710144
12 49 0.8357974879559879
12 50 0.7864193152425453
12 136 0.7808451802798914
12 138 0.9086839242795185
12 153 0.8426110789954203
13 33 0.894147486388357
13 34 0.8559883499947303
13 35 0.7728940182425902
13 49 0.8135107971204845
13 50 0.8362700446632362
13 136 0.787237678901229
13 138 0.9020094501458962
13 152 0.7937274898830013
13 153 0.8548930358473118
25 160 0.7420643338945181
32 33 0.7191935316194701
32 136 0.73989685192791
32 137 0.862535005747886
32 138 0.7416334332572965
33 34 0.8034089099236564
33 49 0.7482747310121727
33 50 0.7705029709511495
33 136 0.8830691062607039
33 138 0.9521683096645109
33 153 0.8211536289467326
34 35 0.7141501966052567
34 49 0.7568908242626187
34 50 0.7104167242199108
34 136 0.7220345719429622
34 138 0.8289256032115163
34 152 0.7089727114739258
34 153 0.8952248214238979
35 152 0.9320509142865676
37 152 0.8378265806803599
38 149 0.7861854084503347
38 153 0.7828538839739858
38 157 0.7109352731326944
40 157 0.8378334864784878
40 161 0.8212133082426455
41 155 0.7260780678902283
42 142 0.7090649969999561
44 142 0.9131059575791441
45 141 0.8839744994126584
46 57 0.7600905402824216
46 65 0.7447395306498453
46 87 0.8177557173787672
46 139 0.8374192596791982
47 139 0.7193351665201003
48 132 0.7686833604623899
49 50 0.7622115942276716
49 138 0.7884229278311401
49 153 0.7486469923855864
50 136 0.7116914166414184
50 138 0.7810506764038143
50 153 0.7180457655959283
56 135 0.9754106506603372
57 58 0.7473713385060305
57 139 0.7646526337835263
58 139 0.7479639001351067
59 159 0.7409044415809211
65 139 0.826797439445772
66 139 0.7731133276850456
71 73 0.8076893839383191
79 137 0.7171012073044077
87 139 0.7450223415207997
93 94 0.8477018977301339
95 96 0.7476102300835002
107 162 0.723831971475082
107 163 0.8690089720935831
115 162 0.7660027767623098
133 134 0.7355076089091552
136 138 0.8004558740053309
136 153 0.7447675811832697
138 153 0.8389392484919622
152 153 0.722269926966618
